Inf,0.304606418236675,0.460683700638617,0.580040193354528,-0.285296728610091,-0.300350488101093,-0.165841229522209
0.304606418236675,Inf,-0.100069982090594,0.479824516260603,0.269767358282514,0.161947957944511,0.077071561553484
0.460683700638617,-0.100069982090594,Inf,0.34360635294893,-0.400105740241866,-0.354748012275392,-0.116713993783536
0.580040193354528,0.479824516260603,0.34360635294893,Inf,-0.138121532128615,-0.0955230256099171,-0.272429855066712
-0.285296728610091,0.269767358282514,-0.400105740241866,-0.138121532128615,Inf,0.129970935677987,-0.0569937231576729
-0.300350488101093,0.161947957944511,-0.354748012275392,-0.0955230256099171,0.129970935677987,Inf,0.194701812958018
-0.165841229522209,0.077071561553484,-0.116713993783536,-0.272429855066712,-0.0569937231576729,0.194701812958018,Inf
