Inf,0.274268824135062,0.107704202911421,0.254894726831315,-0.139598671527441,-0.0287096891036234,0.0546328455285697
0.274268824135062,Inf,-0.0479736234134841,0.416560760783476,0.180500712933607,0.573607166333171,0.0834987029477426
0.107704202911421,-0.0479736234134841,Inf,0.298367926169779,-0.285715104744994,-0.187907817324733,0.0670613121668032
0.254894726831315,0.416560760783476,0.298367926169779,Inf,0.148159271629089,0.415435146800532,-0.106815966172705
-0.139598671527441,0.180500712933607,-0.285715104744994,0.148159271629089,Inf,0.441238888191917,-0.287078247838221
-0.0287096891036234,0.573607166333171,-0.187907817324733,0.415435146800532,0.441238888191917,Inf,-0.0458037342242269
0.0546328455285697,0.0834987029477426,0.0670613121668032,-0.106815966172705,-0.287078247838221,-0.0458037342242269,Inf
