Inf,0.38597618012804,0.0126743904856608,0.389085235425843,-0.0194449367459967,0.298927071642367,0.317958444175373
0.38597618012804,Inf,0.26661613049031,0.370511700845729,0.182606872542884,0.727463962855107,0.136825542810177
0.0126743904856608,0.26661613049031,Inf,0.262784726441537,-0.161439002916533,0.308302624063532,0.0387683130567258
0.389085235425843,0.370511700845729,0.262784726441537,Inf,0.0385161232478196,0.642318521368169,-0.100867690399559
-0.0194449367459967,0.182606872542884,-0.161439002916533,0.0385161232478196,Inf,0.173300557486371,0.163990345752146
0.298927071642367,0.727463962855107,0.308302624063532,0.642318521368169,0.173300557486371,Inf,0.115853782127694
0.317958444175373,0.136825542810177,0.0387683130567258,-0.100867690399559,0.163990345752146,0.115853782127694,Inf
