Inf,0.593762217627029,0.430887662038643,0.583351340586139,-0.464830068861009,-0.0224989726328533,-0.0927753409121694
0.593762217627029,Inf,0.144787077664045,0.554013777370786,-0.151636576059344,0.42161586815706,-0.0720824210776218
0.430887662038643,0.144787077664045,Inf,0.541020641679878,-0.466077380815927,-0.262814038249167,-0.00123557858314489
0.583351340586139,0.554013777370786,0.541020641679878,Inf,-0.253492284250864,0.203324944725547,-0.214565595010668
-0.464830068861009,-0.151636576059344,-0.466077380815927,-0.253492284250864,Inf,0.113116973770744,-0.0872677804211885
-0.0224989726328533,0.42161586815706,-0.262814038249167,0.203324944725547,0.113116973770744,Inf,-0.0632131787275669
-0.0927753409121694,-0.0720824210776218,-0.00123557858314489,-0.214565595010668,-0.0872677804211885,-0.0632131787275669,Inf
