Inf,0.578574311711038,0.260368056154316,0.488884786835482,-0.308395390735567,0.00607926343835823,-0.00418449207080049
0.578574311711038,Inf,0.0407415920709661,0.180800583469697,-0.110953938881818,0.364517972039172,0.258723994610782
0.260368056154316,0.0407415920709661,Inf,0.428315326860991,-0.446118561708544,-0.253893689593622,-0.133560304940462
0.488884786835482,0.180800583469697,0.428315326860991,Inf,-0.443500445405426,0.0263860114296399,-0.20609466479203
-0.308395390735567,-0.110953938881818,-0.446118561708544,-0.443500445405426,Inf,-0.0120674816560365,0.0329476522464141
0.00607926343835823,0.364517972039172,-0.253893689593622,0.0263860114296399,-0.0120674816560365,Inf,-0.0270176494936251
-0.00418449207080049,0.258723994610782,-0.133560304940462,-0.20609466479203,0.0329476522464141,-0.0270176494936251,Inf
