Inf,0.465293343123802,0.199254970741944,0.610245647772592,-0.256249114092431,0.143255618545347,-0.426797447950287
0.465293343123802,Inf,0.0793627274010494,0.365037532406766,0.00822501883541629,0.518540778495874,-0.0261629804079479
0.199254970741944,0.0793627274010494,Inf,0.410606051994125,-0.104541689357992,-0.0620455458679681,-0.246615980997677
0.610245647772592,0.365037532406766,0.410606051994125,Inf,-0.0245864976041599,0.232469542056884,-0.649397993897085
-0.256249114092431,0.00822501883541629,-0.104541689357992,-0.0245864976041599,Inf,0.0441560510497253,0.237972432067053
0.143255618545347,0.518540778495874,-0.0620455458679681,0.232469542056884,0.0441560510497253,Inf,-0.0796099729878568
-0.426797447950287,-0.0261629804079479,-0.246615980997677,-0.649397993897085,0.237972432067053,-0.0796099729878568,Inf
