Inf,0.426544714358665,0.414268635005703,0.688172915207954,-0.203510381572333,-0.0380425771716895,-0.155584332732397
0.426544714358665,Inf,0.115418750242478,0.167598111767557,0.180827892123755,0.223054758866594,0.152874530930931
0.414268635005703,0.115418750242478,Inf,0.43698959232332,0.0864805355784303,-0.15972690386927,-0.128054846374325
0.688172915207954,0.167598111767557,0.43698959232332,Inf,-0.0506085513034108,0.162061079650645,-0.50132699502046
-0.203510381572333,0.180827892123755,0.0864805355784303,-0.0506085513034108,Inf,0.0319514753403389,-0.0934148254735935
-0.0380425771716895,0.223054758866594,-0.15972690386927,0.162061079650645,0.0319514753403389,Inf,0.0184678451709392
-0.155584332732397,0.152874530930931,-0.128054846374325,-0.50132699502046,-0.0934148254735935,0.0184678451709392,Inf
