Inf,0.558640842103457,0.154068002937589,0.132607377982098,-0.489752646653692,0.135987281957913,0.0531503455435666
0.558640842103457,Inf,0.10912216445017,0.245221057421951,0.0980716970725683,0.595356285091896,0.158984201202846
0.154068002937589,0.10912216445017,Inf,0.268669373946727,-0.239059752870781,-0.0470049795615242,-0.00198154698228342
0.132607377982098,0.245221057421951,0.268669373946727,Inf,0.140367925126152,0.326773113835099,-0.182171818351433
-0.489752646653692,0.0980716970725683,-0.239059752870781,0.140367925126152,Inf,0.232820953233363,0.0508353524120146
0.135987281957913,0.595356285091896,-0.0470049795615242,0.326773113835099,0.232820953233363,Inf,0.206340276224748
0.0531503455435666,0.158984201202846,-0.00198154698228342,-0.182171818351433,0.0508353524120146,0.206340276224748,Inf
